<?xml version="1.0" encoding="utf-8"?>
<!-- Generator: Adobe Illustrator 19.0.0, SVG Export Plug-In . SVG Version: 6.00 Build 0)  -->
<svg width="80px" height="80px" version="1.1" id="Layer_1" xmlns="http://www.w3.org/2000/svg" xmlns:xlink="http://www.w3.org/1999/xlink" x="0px" y="0px"
	 viewBox="330 240 140 140" style="enable-background:new 330 240 140 140;" xml:space="preserve">
<style type="text/css">
	.st0{fill:#8DC63F;}
	.st1{font-family:'HelveticaNeueLTPro-Hv';}
	.st2{font-size:35.4906px;}
</style>
<g>
	<g>
		<g>
			<path class="st0" d="M420.1,328.4h-49.7c-5.2,0-9.5-4.2-9.5-9.5v-23.5c0-5.2,4.2-9.5,9.5-9.5h49.7c5.2,0,9.5,4.2,9.5,9.5V319
				C429.5,324.2,425.3,328.4,420.1,328.4z M370.3,289c-3.6,0-6.5,2.9-6.5,6.5V319c0,3.6,2.9,6.5,6.5,6.5h49.7c3.6,0,6.5-2.9,6.5-6.5
				v-23.5c0-3.6-2.9-6.5-6.5-6.5H370.3z"/>
		</g>
		<path class="st0" d="M440.6,261.8c-25.1-25.1-65.7-25.1-90.8,0c-17.7,17.7-22.9,43.2-15.6,65.5l2,38.8l38.8,2
			c22.3,7.3,47.8,2.2,65.5-15.6C465.7,327.5,465.7,286.9,440.6,261.8z M395.2,360.1c-29.2,0-52.8-23.7-52.8-52.8
			s23.7-52.8,52.8-52.8c29.2,0,52.8,23.7,52.8,52.8S424.4,360.1,395.2,360.1z"/>
	</g>
	<text transform="matrix(1 0 0 1 369.3472 319.9595)" class="st0 st1 st2">DE</text>
</g>
</svg>
