<?xml version="1.0" encoding="utf-8"?>
<!-- Generator: Adobe Illustrator 19.0.0, SVG Export Plug-In . SVG Version: 6.00 Build 0)  -->
<svg width="80px" height="80px" version="1.1" id="Layer_1" xmlns="http://www.w3.org/2000/svg" xmlns:xlink="http://www.w3.org/1999/xlink" x="0px" y="0px"
	 viewBox="330 240 140 140" style="enable-background:new 330 240 140 140;" xml:space="preserve">
<style type="text/css">
	.st0{fill:#ED1C24;}
	.st1{font-family:'HelveticaNeueLTPro-Hv';}
	.st2{font-size:35.4906px;}
</style>
<g>
	<g>
		<g>
			<path class="st0" d="M419.7,328.9h-49.7c-5.2,0-9.5-4.2-9.5-9.5v-23.5c0-5.2,4.2-9.5,9.5-9.5h49.7c5.2,0,9.5,4.2,9.5,9.5v23.5
				C429.1,324.6,424.9,328.9,419.7,328.9z M369.9,289.4c-3.6,0-6.5,2.9-6.5,6.5v23.5c0,3.6,2.9,6.5,6.5,6.5h49.7
				c3.6,0,6.5-2.9,6.5-6.5v-23.5c0-3.6-2.9-6.5-6.5-6.5H369.9z"/>
		</g>
		<path class="st0" d="M440.2,262.3c-25.1-25.1-65.7-25.1-90.8,0c-17.7,17.7-22.9,43.2-15.6,65.5l2,38.8l38.8,2
			c22.3,7.3,47.8,2.2,65.5-15.6C465.3,328,465.3,287.3,440.2,262.3z M394.8,360.5c-29.2,0-52.8-23.7-52.8-52.8s23.7-52.8,52.8-52.8
			c29.2,0,52.8,23.7,52.8,52.8S424,360.5,394.8,360.5z"/>
	</g>
	<text transform="matrix(1 0 0 1 367.957 320.4043)" class="st0 st1 st2">CN</text>
</g>
</svg>
