<?xml version="1.0" encoding="utf-8"?>
<!-- Generator: Adobe Illustrator 19.0.0, SVG Export Plug-In . SVG Version: 6.00 Build 0)  -->
<svg width="80px" height="80px" version="1.1" id="Layer_1" xmlns="http://www.w3.org/2000/svg" xmlns:xlink="http://www.w3.org/1999/xlink" x="0px" y="0px"
	 viewBox="300 230 150 150" style="enable-background:new 300 230 150 150;" xml:space="preserve">
<style type="text/css">
	.st0{fill:#00589C;}
	.st1{fill:#FFFFFF;}
</style>
<g id="XMLID_1_">
	<g id="XMLID_198_">
		<path id="XMLID_228_" class="st1" d="M370.9,232.2c-10.3,0-18.7,6.1-23.4,14.9c-4.1-8.8-12.9-14.9-23.2-14.9
			c-14.1,0-25.6,11.5-25.6,25.6c0,24.9,20.6,39,48.8,62.6c28.3-23.7,48.9-37.7,48.9-62.6C396.4,243.7,385.1,232.2,370.9,232.2z"/>
		<g id="XMLID_224_">
			<rect id="XMLID_225_" x="340.2" y="360.8" class="st1" width="82.4" height="3.6"/>
		</g>
		<g id="XMLID_215_">
			<rect id="XMLID_219_" x="340.2" y="341.1" class="st1" width="82.4" height="3.6"/>
		</g>
		<g id="XMLID_211_">
			<rect id="XMLID_214_" x="369.4" y="317.8" class="st1" width="53.2" height="3.6"/>
		</g>
		<path id="XMLID_208_" class="st1" d="M401.2,247.8c0.3,0.7,0.6,2.2,0.8,3.6h30.8v125.4H330V314l-2.9-2.6v68.4h108.6V247.8H401.2z"
			/>
	</g>
</g>
</svg>
